{
	"name": "lazer pie",
	"toppings": ["dough_crust", "marinara_sauce", "mozzarella_cheese", "laser_beams"],
	"img": "//s3-us-west-2.amazonaws.com/pizza-luvrs-bradgraves/pizzas/lazer-pie.png",
	"username": "ryan"
}
